graph TD
    D0["FastQ files from sequencing (R1 and R2 files)"] -->  S1
    subgraph ""
    S1["Check quality encoding"] --> S2["Demultiplexing and primer trimming"]
    S2 --> S3["Quality plots"]
    end
    S3 --> D1["FWD and REV primer trimmed sequence for each sample"]
    D1 -->|DADA2| Da1["Filtration and length trimming"]
    D1 -->|Fred\'s pipeline| Sw1["Merging"]
    subgraph ""
    Da1 --> Da2["Denoising and merging"]
    Da2 --> Da3["Chimera detection, OTU table construction"]
    end
    Da3 -->|Unique sequences| Z1["Taxonomic assignment"]
    subgraph ""
    Sw1 --> Sw3["Swarm and chimera detection"]
    Sw3 --> Sw4["OTU table construction"]
    Sw4 --> Sw5["OTU table filtration"]
    end
    Sw5 -->|Unique sequences| Z1["Taxonomic assignment"]
    Z1 --> Z2["Final dada2 ASV table"]
    Z1 --> Z3["Final swarm OTU table"]